{
	"request": {
		"method": "POST",
		"url": "/manhatten/fulfil",
		"bodyPatterns": [
			{
				"matchesXPath": {
					"expression": "//requestType/text()",
					"contains": "orderItem"
				}
			},
			{
				"matchesXPath": {
					"expression": "//customerNumber/text()",
					"contains": "5721"
				}
			}
		]
	},
	"response": {
		"status": 200,
		"bodyFileName": "njams/02_njamsDemo_Manhatten_Coffe_Post_200.xml",
		"headers": {
			"Content-Type": "text/xml; charset=UTF-8"
		}
	}
}